,"City, Co",lat,temps,humidity,clouds (%),wind_speed,city_id
0,"Cherskiy, RU",68.75,12.8,80,8,1.87,2126199
1,"Butaritari, KI",3.07,84.64,66,10,4.94,2110227
2,"Mahebourg, MU",-20.41,73.74,78,20,12.75,934322
3,"Khatanga, RU",71.98,19.93,95,3,7.94,2022572
4,"Kayerkan, RU",69.35,32.0,92,75,22.37,1497337
5,"Punta Arenas, CL",-53.16,46.18,61,0,27.51,3874787
6,"Antalaha, MG",-14.9,64.61,98,44,2.59,1071296
7,"Harper, LR",4.38,77.44,87,29,10.74,2276492
8,"Rikitea, PF",-23.12,73.41,88,100,8.68,4030556
9,"Punta Arenas, CL",-53.16,46.18,61,0,27.51,3874787
10,"Busselton, AU",-33.64,46.31,72,0,10.98,2075265
11,"Lagoa, PT",37.14,69.67,64,0,8.05,2267254
12,"Phalaborwa, ZA",-23.95,77.0,33,0,3.36,965528
13,"Punta Arenas, CL",-53.16,46.18,61,0,27.51,3874787
14,"Puerto Ayora, EC",-0.74,71.6,64,20,24.16,3652764
15,"Victoria, SC",-4.62,78.8,83,75,8.05,241131
16,"Albany, AU",-35.02,53.6,87,90,4.7,2077963
17,"Dikson, RU",73.51,24.68,73,100,28.36,1507390
18,"Kapaa, US",22.08,81.93,69,1,9.17,5848280
19,"Yerbogachen, RU",61.28,29.08,85,64,8.37,2012956
20,"Cape Town, ZA",-33.93,61.23,82,75,6.93,3369157
21,"Castro, CL",-42.48,53.6,62,75,13.87,3896218
22,"Okato, NZ",-39.19,50.0,82,38,5.01,2185763
23,"Bongor, TD",10.28,73.41,85,0,4.47,2434910
24,"Ushuaia, AR",-54.81,46.4,65,75,17.22,3833367
25,"Butaritari, KI",3.07,84.64,66,10,4.94,2110227
26,"Lisakovsk, KZ",52.55,50.78,46,0,6.24,1521315
27,"Ewa Beach, US",21.32,83.57,51,20,9.17,5855051
28,"Port Hardy, CA",50.7,50.0,93,90,8.05,6111862
29,"Mackay, AU",-21.15,70.59,88,0,6.93,2159220
30,"Busselton, AU",-33.64,46.31,72,0,7.48,2075265
31,"Kiunga, PG",-6.12,72.92,99,100,1.86,2093846
32,"Obernai, FR",48.46,53.08,87,90,5.82,2989796
33,"Camabatela, AO",-8.19,67.22,87,2,4.62,2242885
34,"Albany, AU",-35.02,53.6,87,90,4.7,2077963
35,"Busselton, AU",-33.64,46.31,72,0,7.48,2075265
36,"Talgar, KZ",43.3,53.6,71,20,4.47,1518518
37,"Port Alfred, ZA",-33.59,64.99,90,90,1.01,964432
38,"Outlook, CA",51.48,56.24,42,0,16.69,6095416
39,"Nikolskoye, RU",59.7,34.68,80,90,2.24,546105
40,"Kaitangata, NZ",-46.28,51.01,66,86,3.0,2208248
41,"Bluff, NZ",-46.6,48.99,86,100,1.99,2206939
42,"Logan Lake, CA",50.49,54.23,54,75,6.93,6058415
43,"Plouzane, FR",48.38,52.38,93,82,3.36,2986626
44,"Castro, CL",-42.48,53.6,62,75,13.87,3896218
45,"Manoel Urbano, BR",-8.84,93.12,37,41,1.39,3663495
46,"Abu Kamal, SY",34.45,70.69,62,0,9.4,174448
47,"Ushuaia, AR",-54.81,46.4,65,75,17.22,3833367
48,"Dunedin, NZ",-45.87,53.01,65,64,7.0,2191562
49,"Vaini, TO",-21.2,71.6,88,90,8.05,4032243
50,"Kapaa, US",22.08,81.93,69,1,9.17,5848280
51,"Puerto Ayora, EC",-0.74,71.6,64,20,24.16,3652764
52,"Avarua, CK",-21.21,73.4,49,100,8.05,4035715
53,"Faanui, PF",-16.48,77.44,84,100,17.94,4034551
54,"Vaini, TO",-21.2,71.6,88,90,8.05,4032243
55,"Cape Town, ZA",-33.93,61.23,82,75,6.93,3369157
56,"Paamiut, GL",61.99,39.03,74,0,38.72,3421193
57,"Karpogory, RU",64.0,33.07,93,100,2.28,552256
58,"Butaritari, KI",3.07,84.64,66,10,4.94,2110227
59,"Chincha Alta, PE",-13.42,67.35,30,0,9.17,3943789
60,"San Juan de los Morros, VE",9.91,76.87,87,100,2.62,3628053
61,"Road Town, VG",18.42,84.79,66,20,8.05,3577430
62,"Pevek, RU",69.7,26.95,80,97,4.45,2122090
63,"Punta Arenas, CL",-53.16,46.18,61,0,27.51,3874787
64,"Tessalit, ML",20.2,93.43,18,96,4.76,2449893
65,"Port-Gentil, GA",-0.72,78.8,88,40,5.82,2396518
66,"Busselton, AU",-33.64,46.31,72,0,7.48,2075265
67,"Sitka, US",37.17,64.99,41,98,15.01,4267710
68,"Shenzhen, CN",22.54,77.63,83,40,6.71,1795565
69,"Qujing, CN",25.49,53.79,97,41,1.3,1797318
70,"Isangel, VU",-19.55,75.2,78,75,10.67,2136825
71,"Aklavik, CA",68.22,35.6,59,75,10.29,5882953
72,"Komsomolskiy, RU",67.55,32.66,89,99,20.0,1486910
73,"Cape Town, ZA",-33.93,61.23,82,75,6.93,3369157
74,"Rikitea, PF",-23.12,73.41,88,100,8.68,4030556
75,"Ukiah, US",39.15,84.52,13,1,7.4,5404476
76,"Rikitea, PF",-23.12,73.41,88,100,8.68,4030556
77,"Namie, JP",37.52,57.22,93,75,5.82,2111704
78,"Ushuaia, AR",-54.81,46.4,65,75,17.22,3833367
79,"Selikhino, RU",50.37,41.68,71,83,10.83,2017042
80,"Ushuaia, AR",-54.81,46.4,65,75,17.22,3833367
81,"Georgetown, SH",-7.93,73.14,78,100,19.73,2411397
82,"Bluff, NZ",-46.6,48.99,86,100,1.99,2206939
83,"Atuona, PF",-9.8,79.44,73,52,17.0,4020109
84,"Kapaa, US",22.08,81.93,69,1,9.17,5848280
85,"East London, ZA",-33.02,61.1,91,100,4.29,1006984
86,"Klaksvik, FO",62.23,51.8,81,100,29.97,2618795
87,"Palauig, PH",15.44,72.55,80,0,5.27,1696188
88,"Rikitea, PF",-23.12,73.41,88,100,8.68,4030556
89,"Banjar, ID",-7.37,68.73,96,97,0.29,1650233
90,"Cape Town, ZA",-33.93,61.23,82,75,6.93,3369157
91,"Tamiahua, MX",21.28,82.93,77,100,12.01,3516376
92,"East London, ZA",-33.02,61.1,91,100,4.29,1006984
93,"Guangyuan, CN",32.43,55.72,86,100,3.31,1806466
94,"Hobart, AU",-42.88,51.21,61,40,8.05,2163355
95,"Meulaboh, ID",4.14,78.29,84,100,9.15,1214488
96,"Punta Arenas, CL",-53.16,46.18,61,0,27.51,3874787
97,"Lorengau, PG",-2.02,80.36,80,100,6.6,2092164
98,"Saint-Philippe, RE",-21.36,67.1,73,0,6.93,935215
99,"Paraiso, MX",24.01,77.5,25,40,9.17,4011743
100,"Beloha, MG",-25.17,73.18,67,0,12.66,1067565
101,"Cape Town, ZA",-33.93,61.23,82,75,6.93,3369157
102,"Lubao, CD",-5.39,74.29,78,78,3.13,211098
103,"Rikitea, PF",-23.12,73.41,88,100,8.68,4030556
104,"La Ronge, CA",55.1,53.6,46,75,17.22,6050066
105,"Bilibino, RU",68.06,7.44,84,51,3.65,2126682
106,"Mehriz, IR",31.58,71.6,18,0,4.7,124274
107,"Aleppo, SY",36.2,62.57,89,0,4.74,170063
108,"Barrow, US",39.51,66.6,40,75,5.82,4252975
109,"Nome, US",30.04,89.28,43,1,6.93,4732862
110,"Butaritari, KI",3.07,84.64,66,10,4.94,2110227
111,"New Norfolk, AU",-42.78,50.97,61,40,8.05,2155415
112,"Tungor, RU",53.39,40.96,82,95,15.26,2120400
113,"Port Alfred, ZA",-33.59,64.99,90,90,1.01,964432
114,"Vaini, TO",-21.2,71.6,88,90,8.05,4032243
115,"Amga, RU",60.89,25.6,77,100,7.43,2027786
116,"Busselton, AU",-33.64,46.31,72,0,7.48,2075265
117,"Saint-Joseph, RE",-21.37,67.08,73,0,6.93,6690296
118,"Rikitea, PF",-23.12,73.41,88,100,8.68,4030556
119,"Huazhou, CN",21.65,73.1,92,100,8.28,1806960
120,"Bilma, NE",18.69,86.77,41,39,10.71,2446796
121,"Atuona, PF",-9.8,79.44,73,52,17.0,4020109
122,"Cidreira, BR",-30.17,61.85,80,100,7.76,3466165
123,"Cape Town, ZA",-33.93,61.23,82,75,6.93,3369157
124,"Akdepe, TM",42.05,50.86,46,0,9.17,601551
125,"Puerto Montt, CL",-41.47,51.8,76,75,11.41,3874960
126,"Bluff, NZ",-46.6,48.99,86,100,1.99,2206939
127,"Clyde River, CA",70.47,28.4,74,40,6.93,5924351
128,"Penzance, GB",50.12,55.42,87,100,1.12,2640377
129,"Dwarka, IN",28.58,81.99,78,75,5.82,1273294
130,"Rikitea, PF",-23.12,73.41,88,100,8.68,4030556
131,"Esperance, AU",-33.86,46.4,100,75,6.93,2071860
132,"Atuona, PF",-9.8,79.44,73,52,17.0,4020109
133,"Kurilsk, RU",45.23,53.52,63,2,10.04,2123979
134,"Vaini, TO",-21.2,71.6,88,90,8.05,4032243
135,"Okhotsk, RU",59.36,21.64,52,0,12.09,2122605
136,"Sekoma, BW",-24.51,77.12,24,49,13.2,933102
137,"Hualmay, PE",-11.1,61.24,89,0,16.15,3939761
138,"Ushuaia, AR",-54.81,46.4,65,75,17.22,3833367
139,"Khatanga, RU",71.98,19.93,95,3,7.94,2022572
140,"Banda Aceh, ID",5.56,80.93,76,100,4.25,1215502
141,"Puerto Ayora, EC",-0.74,71.6,64,20,24.16,3652764
142,"Poya, NC",-21.35,70.13,75,33,9.98,2138522
143,"Pacific Grove, US",36.62,83.95,18,1,4.7,5380437
144,"Fairview, CA",56.07,56.07,36,75,21.92,5951036
145,"Faanui, PF",-16.48,77.44,84,100,17.94,4034551
146,"Bambous Virieux, MU",-20.34,73.74,78,20,12.75,1106677
147,"Iqaluit, CA",63.75,37.17,86,75,10.29,5983720
148,"Dudinka, RU",69.41,32.0,97,75,22.37,1507116
149,"Mahebourg, MU",-20.41,73.74,78,20,12.75,934322
150,"Jamestown, SH",-15.94,66.44,80,100,20.8,3370903
151,"Kavieng, PG",-2.57,83.18,72,73,7.2,2094342
152,"Hermanus, ZA",-34.42,59.56,91,98,2.71,3366880
153,"Rikitea, PF",-23.12,73.41,88,100,8.68,4030556
154,"Saskylakh, RU",71.97,18.71,97,85,0.45,2017155
155,"Rikitea, PF",-23.12,73.41,88,100,8.68,4030556
156,"Quelimane, MZ",-17.88,73.4,83,0,12.75,1028434
157,"Hilo, US",19.71,78.28,51,1,5.82,5855927
158,"Sobolevo, RU",54.43,30.16,91,64,6.35,525426
159,"Alice Springs, AU",-23.7,64.4,31,0,5.82,2077895
160,"Tuktoyaktuk, CA",69.44,35.6,80,90,18.34,6170031
161,"Vaini, TO",-21.2,71.6,88,90,8.05,4032243
162,"Tasiilaq, GL",65.61,42.8,87,100,7.16,3424607
163,"Borova, UA",50.18,41.31,80,40,11.18,711621
164,"New Norfolk, AU",-42.78,50.97,61,40,8.05,2155415
165,"Roald, NO",62.58,34.39,47,0,1.12,3141667
166,"Shestakovo, RU",56.49,27.76,94,100,5.48,2016733
167,"San Patricio, MX",19.22,89.6,75,40,5.82,3985168
168,"Erenhot, CN",43.65,48.25,41,0,13.35,2037485
169,"Punta Arenas, CL",-53.16,46.18,61,0,27.51,3874787
170,"Arraial do Cabo, BR",-22.97,76.37,83,0,6.93,3471451
171,"Saint George, BM",32.38,72.64,56,75,21.92,3573061
172,"Cape Town, ZA",-33.93,61.23,82,75,6.93,3369157
173,"Atuona, PF",-9.8,79.44,73,52,17.0,4020109
174,"Cape Town, ZA",-33.93,61.23,82,75,6.93,3369157
175,"Revda, RU",67.94,33.52,98,100,4.76,502010
176,"Barcelos, BR",-0.97,91.91,47,21,3.67,3665098
177,"Hilo, US",19.71,78.28,51,1,5.82,5855927
178,"Severo-Kurilsk, RU",50.68,44.86,77,0,22.64,2121385
179,"Broome, AU",-17.97,77.0,88,0,6.93,2075720
180,"Kruisfontein, ZA",-34.0,57.93,78,80,0.85,986717
181,"Cabo San Lucas, MX",22.89,86.79,48,5,9.17,3985710
182,"Chuy, UY",-33.69,58.43,78,6,8.39,3443061
183,"Hermanus, ZA",-34.42,59.56,91,98,2.71,3366880
184,"Vigrestad, NO",58.57,36.81,74,0,4.7,3131824
185,"Saskylakh, RU",71.97,18.71,97,85,0.45,2017155
186,"High Level, CA",58.52,53.6,50,75,10.29,5975004
187,"Hobart, AU",-42.88,51.21,61,40,8.05,2163355
188,"Waddan, LY",29.16,72.2,29,3,8.05,2209055
189,"Albany, AU",-35.02,53.6,87,90,4.7,2077963
190,"Port Keats, AU",-14.25,75.79,88,4,4.29,2063039
191,"Poya, NC",-21.35,70.13,75,33,9.98,2138522
192,"Ancud, CL",-41.87,53.6,62,75,13.87,3899695
193,"Rock Springs, US",41.59,50.0,25,1,10.29,5836898
194,"Amapa, BR",-1.83,93.5,37,88,4.52,3401225
195,"Albany, AU",-35.02,53.6,87,90,4.7,2077963
196,"Zhuhai, CN",40.71,32.0,48,0,4.47,2052479
197,"Wanparti, IN",16.36,73.9,83,66,5.3,1252956
198,"Kaitangata, NZ",-46.28,51.01,66,86,3.0,2208248
199,"Vaini, TO",-21.2,71.6,88,90,8.05,4032243
200,"Kapaa, US",22.08,81.93,69,1,9.17,5848280
201,"Jamestown, SH",-15.94,66.44,80,100,20.8,3370903
202,"Qaanaaq, GL",77.48,16.55,79,67,15.17,3831208
203,"Labuhan, ID",-2.54,71.16,93,99,1.5,1641899
204,"Meulaboh, ID",4.14,78.29,84,100,9.15,1214488
205,"La Ronge, CA",55.1,53.6,46,75,17.22,6050066
206,"Bathsheba, BB",13.22,86.0,70,75,16.11,3374083
207,"Upernavik, GL",72.79,31.54,72,87,7.47,3418910
208,"Torbay, CA",47.66,45.23,70,20,6.93,6167817
209,"Cape Town, ZA",-33.93,61.23,82,75,6.93,3369157
210,"Ulverstone, AU",-41.16,51.01,66,70,1.01,2145532
211,"Calabozo, VE",8.92,84.48,79,46,3.96,3647444
212,"Punta Arenas, CL",-53.16,46.18,61,0,27.51,3874787
213,"Ambilobe, MG",-13.19,76.25,65,0,12.03,1082243
214,"Coquimbo, CL",-29.95,62.6,63,0,13.87,3893629
215,"Jamestown, SH",-15.94,66.44,80,100,20.8,3370903
216,"Barrow, US",39.51,66.6,40,75,5.82,4252975
217,"New Norfolk, AU",-42.78,50.97,61,40,8.05,2155415
218,"Wilmington, US",39.75,67.82,88,90,3.36,4145381
219,"Port Elizabeth, ZA",-33.92,60.8,93,75,8.05,964420
220,"Narsaq, GL",60.91,42.8,59,0,1.12,3421719
221,"Atuona, PF",-9.8,79.44,73,52,17.0,4020109
222,"Esfarayen, IR",37.08,51.8,40,0,2.24,135298
223,"Atuona, PF",-9.8,79.44,73,52,17.0,4020109
224,"Rikitea, PF",-23.12,73.41,88,100,8.68,4030556
225,"Shahrud, IR",36.42,52.53,24,0,5.97,135423
226,"Leningradskiy, RU",69.38,25.01,76,57,8.97,2123814
227,"Upernavik, GL",72.79,31.54,72,87,7.47,3418910
228,"Ostrovnoy, RU",68.05,30.23,94,84,11.88,556268
229,"Puerto Ayora, EC",-0.74,71.6,64,20,24.16,3652764
230,"Punta Arenas, CL",-53.16,46.18,61,0,27.51,3874787
231,"Cayenne, GF",4.94,82.4,83,20,2.24,3382160
232,"Kavieng, PG",-2.57,83.18,72,73,7.2,2094342
233,"Albany, AU",-35.02,53.6,87,90,4.7,2077963
234,"Lasem, ID",-6.99,71.63,88,100,5.22,8142546
235,"Busselton, AU",-33.64,46.31,72,0,7.48,2075265
236,"Thompson, CA",55.74,44.6,87,90,10.29,6165406
237,"Sitka, US",37.17,64.99,41,98,15.01,4267710
238,"Busselton, AU",-33.64,46.31,72,0,7.48,2075265
239,"Katsuura, JP",33.93,60.8,87,40,5.82,1865309
240,"Paamiut, GL",61.99,39.03,74,0,38.72,3421193
241,"Miyako, JP",33.63,64.72,88,20,2.24,1848087
242,"Saint George, BM",32.38,72.64,56,75,21.92,3573061
243,"Hilo, US",19.71,78.28,51,1,5.82,5855927
244,"Yellowknife, CA",62.45,44.28,87,75,12.75,6185377
245,"Castro, CL",-42.48,53.6,62,75,13.87,3896218
246,"Alice Springs, AU",-23.7,64.4,31,0,5.82,2077895
247,"Daokou, CN",35.61,39.14,82,32,1.79,1806807
248,"Mirnyy, RU",56.57,34.64,83,100,11.03,502265
249,"New Norfolk, AU",-42.78,50.97,61,40,8.05,2155415
250,"Puerto Ayora, EC",-0.74,71.6,64,20,24.16,3652764
251,"Coihaique, CL",-45.58,48.0,61,75,6.93,3894426
252,"Jamestown, SH",-15.94,66.44,80,100,20.8,3370903
253,"Shubarkuduk, KZ",49.15,51.95,28,0,10.94,608271
254,"Merauke, ID",-8.49,75.7,86,70,6.8,2082539
255,"Arraial do Cabo, BR",-22.97,76.37,83,0,6.93,3471451
256,"Saldanha, ZA",-33.01,59.0,77,100,3.36,3361934
257,"Severo-Kurilsk, RU",50.68,44.86,77,0,22.64,2121385
258,"Zaoyang, CN",32.12,52.39,89,86,7.05,1785462
259,"Rikitea, PF",-23.12,73.41,88,100,8.68,4030556
260,"Shaturtorf, RU",55.57,32.51,98,100,11.27,495515
261,"Westport, IE",53.8,52.2,89,97,1.99,2960970
262,"Perth, AU",-31.95,52.18,66,0,18.34,2063523
263,"Atuona, PF",-9.8,79.44,73,52,17.0,4020109
264,"Mbuji-Mayi, CD",-6.13,72.42,85,66,1.16,209228
265,"Longyearbyen, SJ",78.22,32.0,89,75,4.7,2729907
266,"Dikson, RU",73.51,24.68,73,100,28.36,1507390
267,"Saint-Philippe, RE",-21.36,67.1,73,0,6.93,935215
268,"Atar, MR",20.52,92.74,9,0,6.52,2381334
269,"Busselton, AU",-33.64,46.31,72,0,7.48,2075265
270,"Albany, AU",-35.02,53.6,87,90,4.7,2077963
271,"Katsuura, JP",33.93,60.8,87,40,5.82,1865309
272,"Oranjestad, AW",12.52,87.8,66,20,20.8,3577154
273,"Tuktoyaktuk, CA",69.44,35.6,80,90,18.34,6170031
274,"Ushuaia, AR",-54.81,46.4,65,75,17.22,3833367
275,"Carira, BR",-10.36,75.79,70,17,13.24,3466941
276,"Ushuaia, AR",-54.81,46.4,65,75,17.22,3833367
277,"Marawi, SD",18.48,97.48,18,11,4.04,370481
278,"Jackson, US",35.61,78.26,78,20,8.05,4632595
279,"Guerrero Negro, MX",27.97,83.78,37,0,13.13,4021858
280,"Pisco, PE",-13.71,67.42,30,0,9.17,3932145
281,"Wanning, CN",18.8,71.47,96,94,1.05,1791779
282,"Lima, PE",-12.06,62.6,82,90,6.93,3936456
283,"Ulladulla, AU",-35.36,60.31,82,69,4.7,2145554
284,"Cabo San Lucas, MX",22.89,86.79,48,5,9.17,3985710
285,"Clyde River, CA",70.47,28.4,74,40,6.93,5924351
286,"Candelaria, CU",22.74,86.0,66,40,18.34,3565768
287,"Grand Island, US",40.92,64.96,37,1,16.11,5069297
288,"Loreto, PH",8.19,68.32,98,62,1.21,1705552
289,"Tazovskiy, RU",67.47,34.12,80,17,21.97,1489853
290,"Mahajanga, MG",-15.72,77.0,88,20,2.24,1062663
291,"Houma, US",29.6,85.35,58,75,10.29,4328010
292,"Ushuaia, AR",-54.81,46.4,65,75,17.22,3833367
293,"Dhanwar, IN",24.42,75.14,82,100,2.53,1272902
294,"Ushuaia, AR",-54.81,46.4,65,75,17.22,3833367
295,"Atuona, PF",-9.8,79.44,73,52,17.0,4020109
296,"Busselton, AU",-33.64,46.31,72,0,7.48,2075265
297,"Praia da Vitoria, PT",38.73,75.2,73,20,17.11,3372760
298,"Pisco, PE",-13.71,67.42,30,0,9.17,3932145
299,"Busselton, AU",-33.64,46.31,72,0,7.48,2075265
300,"Georgetown, SH",-7.93,73.14,78,100,19.73,2411397
301,"Upernavik, GL",72.79,31.54,72,87,7.47,3418910
302,"Kavieng, PG",-2.57,83.18,72,73,7.2,2094342
303,"Punta Arenas, CL",-53.16,46.18,61,0,27.51,3874787
304,"Dingle, IE",52.14,56.81,88,100,36.98,2964782
305,"Ponta do Sol, PT",32.67,68.74,64,40,19.46,2264557
306,"Ushuaia, AR",-54.81,46.4,65,75,17.22,3833367
307,"Curup, ID",-3.47,67.45,80,96,2.66,1645875
308,"Werda, BW",-25.27,74.99,31,94,9.53,932960
309,"Punta Arenas, CL",-53.16,46.18,61,0,27.51,3874787
310,"Artyshta, RU",54.12,47.56,87,0,1.06,1511361
311,"Provideniya, RU",64.42,33.8,80,16,4.47,4031574
312,"Agboville, CI",5.93,71.88,98,21,3.04,2293268
313,"Onokhino, RU",56.92,44.6,48,0,8.95,1496124
314,"Sao Felix do Xingu, BR",-6.64,84.71,55,81,0.76,3388847
315,"Granite City, US",38.7,63.5,68,90,9.06,4239714
316,"Hokitika, NZ",-42.72,50.8,73,100,4.99,2206894
317,"Namibe, AO",-15.19,67.6,76,26,3.15,3347019
318,"Busselton, AU",-33.64,46.31,72,0,7.48,2075265
319,"Rikitea, PF",-23.12,73.41,88,100,8.68,4030556
320,"Pundaguitan, PH",6.37,80.34,76,46,3.36,1698289
321,"Klaksvik, FO",62.23,51.8,81,100,29.97,2618795
322,"Xining, CN",36.62,36.08,94,100,1.83,1788852
323,"Norman Wells, CA",65.28,39.2,55,20,11.41,6089245
324,"Souillac, MU",-20.52,73.74,78,20,12.75,933995
325,"East London, ZA",-33.02,61.1,91,100,4.29,1006984
326,"Rikitea, PF",-23.12,73.41,88,100,8.68,4030556
327,"Ushuaia, AR",-54.81,46.4,65,75,17.22,3833367
328,"Rikitea, PF",-23.12,73.41,88,100,8.68,4030556
329,"Hermanus, ZA",-34.42,59.56,91,98,2.71,3366880
330,"Mahajanga, MG",-15.72,77.0,88,20,2.24,1062663
331,"Avarua, CK",-21.21,73.4,49,100,8.05,4035715
332,"Sargatskoye, RU",55.6,48.08,71,52,5.48,1493004
333,"Atuona, PF",-9.8,79.44,73,52,17.0,4020109
334,"Punta Arenas, CL",-53.16,46.18,61,0,27.51,3874787
335,"Ponta do Sol, CV",17.2,78.8,78,20,19.46,3374346
336,"Rikitea, PF",-23.12,73.41,88,100,8.68,4030556
337,"Saint-Philippe, RE",-21.36,67.1,73,0,6.93,935215
338,"Grindavik, IS",63.84,49.05,81,75,13.87,3416888
339,"Lorengau, PG",-2.02,80.36,80,100,6.6,2092164
340,"Cap Malheureux, MU",-19.98,73.69,78,20,12.75,934649
341,"Bredasdorp, ZA",-34.53,56.8,87,100,1.12,1015776
342,"Bulgan, MN",48.81,31.04,93,93,5.01,2032201
343,"Castro, CL",-42.48,53.6,62,75,13.87,3896218
344,"Albany, AU",-35.02,53.6,87,90,4.7,2077963
345,"Carutapera, BR",-1.2,79.78,78,80,8.66,3402648
346,"Coihaique, CL",-45.58,48.0,61,75,6.93,3894426
347,"Ushuaia, AR",-54.81,46.4,65,75,17.22,3833367
348,"Vao, NC",-22.67,71.02,75,0,5.46,2137773
349,"Rikitea, PF",-23.12,73.41,88,100,8.68,4030556
350,"Bambous Virieux, MU",-20.34,73.74,78,20,12.75,1106677
351,"Georgetown, SH",-7.93,73.14,78,100,19.73,2411397
352,"Verkhnyaya Inta, RU",65.99,32.3,88,100,17.26,1487332
353,"Acapulco, MX",16.86,86.0,74,20,6.93,3533462
354,"Bredasdorp, ZA",-34.53,56.8,87,100,1.12,1015776
355,"Barrow, US",39.51,66.6,40,75,5.82,4252975
356,"Albany, AU",-35.02,53.6,87,90,4.7,2077963
357,"Cape Town, ZA",-33.93,61.23,82,75,6.93,3369157
358,"Severo-Kurilsk, RU",50.68,44.86,77,0,22.64,2121385
359,"Qasigiannguit, GL",68.82,35.6,80,100,10.29,3420768
360,"Hilo, US",19.71,78.28,51,1,5.82,5855927
361,"Taoudenni, ML",22.68,87.34,8,0,8.29,2450173
362,"Kokopo, PG",-4.34,73.03,90,97,2.08,2093685
363,"Bambous Virieux, MU",-20.34,73.74,78,20,12.75,1106677
364,"Kruisfontein, ZA",-34.0,57.93,78,80,0.85,986717
365,"Hofn, IS",64.25,38.38,99,100,4.76,2630299
366,"Hilo, US",19.71,78.28,51,1,5.82,5855927
367,"Floresta, BR",-8.6,85.56,23,0,10.83,3399518
368,"Zhangjiakou, CN",40.77,38.98,41,0,3.29,2033196
369,"Punta Arenas, CL",-53.16,46.18,61,0,27.51,3874787
370,"Cape Town, ZA",-33.93,61.23,82,75,6.93,3369157
371,"Mahebourg, MU",-20.41,73.74,78,20,12.75,934322
372,"New Norfolk, AU",-42.78,50.97,61,40,8.05,2155415
373,"Hobart, AU",-42.88,51.21,61,40,8.05,2163355
374,"Bathsheba, BB",13.22,86.0,70,75,16.11,3374083
375,"Gamba, GA",-2.72,77.06,87,100,6.15,2400547
376,"Hobart, AU",-42.88,51.21,61,40,8.05,2163355
377,"Pizarro, CO",4.95,78.61,83,96,11.03,3672086
378,"Yellowknife, CA",62.45,44.28,87,75,12.75,6185377
379,"East London, ZA",-33.02,61.1,91,100,4.29,1006984
380,"Castro, CL",-42.48,53.6,62,75,13.87,3896218
381,"Butaritari, KI",3.07,84.64,66,10,4.94,2110227
382,"Turbat, PK",26.0,79.4,63,0,1.06,1163054
383,"Ahipara, NZ",-35.17,64.99,100,12,5.23,2194098
384,"Kuandian, CN",40.73,44.43,90,100,1.72,2036283
385,"Kaitangata, NZ",-46.28,51.01,66,86,3.0,2208248
386,"Butaritari, KI",3.07,84.64,66,10,4.94,2110227
387,"Tuktoyaktuk, CA",69.44,35.6,80,90,18.34,6170031
388,"Corinto, NI",12.48,87.8,74,40,6.93,3620269
389,"Skjervoy, NO",70.03,43.39,77,100,22.21,777682
390,"Rikitea, PF",-23.12,73.41,88,100,8.68,4030556
391,"Ushuaia, AR",-54.81,46.4,65,75,17.22,3833367
392,"Atuona, PF",-9.8,79.44,73,52,17.0,4020109
393,"Yeppoon, AU",-23.13,69.8,77,90,6.93,2142316
394,"Agadir, MA",30.42,66.2,82,0,5.82,2561668
395,"Ushuaia, AR",-54.81,46.4,65,75,17.22,3833367
396,"Kaeo, NZ",-35.1,63.97,100,6,4.99,2189343
397,"Kodiak, US",39.95,65.57,37,1,12.75,4407665
398,"Mpulungu, ZM",-8.77,72.04,51,96,7.92,175961
399,"Wembley, CA",55.15,53.6,37,90,23.04,6178038
400,"Hermanus, ZA",-34.42,59.56,91,98,2.71,3366880
401,"Avarua, CK",-21.21,73.4,49,100,8.05,4035715
402,"San Patricio, MX",19.22,89.6,75,40,5.82,3985168
403,"Bandar-e Lengeh, IR",26.56,86.0,74,0,11.41,141665
404,"Bluff, NZ",-46.6,48.99,86,100,1.99,2206939
405,"Boldumsaz, TM",42.13,50.92,34,0,8.32,601661
406,"Bethel, US",60.79,42.8,75,20,11.41,5880568
407,"Padang, ID",-0.92,77.93,85,94,15.84,1633419
408,"Butaritari, KI",3.07,84.64,66,10,4.94,2110227
409,"Praia, CV",14.92,80.6,78,75,13.87,3374333
410,"Rikitea, PF",-23.12,73.41,88,100,8.68,4030556
411,"Saint-Philippe, RE",-21.36,67.1,73,0,6.93,935215
412,"Rikitea, PF",-23.12,73.41,88,100,8.68,4030556
413,"Alta Floresta, BR",-9.87,87.23,52,87,0.47,6316343
414,"Chuzhou, CN",32.25,61.0,95,100,3.0,1814757
415,"Sarahan, IN",31.51,51.13,80,100,2.33,1257277
416,"Ilulissat, GL",69.22,35.6,80,100,10.29,3423146
417,"Sitka, US",37.17,64.99,41,98,15.01,4267710
418,"Kaitangata, NZ",-46.28,51.01,66,86,3.0,2208248
419,"Busselton, AU",-33.64,46.31,72,0,7.48,2075265
420,"Gorontalo, ID",0.54,71.14,94,0,2.59,1643837
421,"Hobart, AU",-42.88,51.21,61,40,8.05,2163355
422,"Busselton, AU",-33.64,46.31,72,0,7.48,2075265
423,"Pisco, PE",-13.71,67.42,30,0,9.17,3932145
424,"Egvekinot, RU",66.32,22.88,73,61,2.1,4031742
425,"Port Elizabeth, ZA",-33.92,60.8,93,75,8.05,964420
426,"Cidreira, BR",-30.17,61.85,80,100,7.76,3466165
427,"Umm Lajj, SA",25.02,83.53,76,0,11.27,100926
428,"Bluff, NZ",-46.6,48.99,86,100,1.99,2206939
429,"Provideniya, RU",64.42,33.8,80,16,4.47,4031574
430,"Piacabucu, BR",-10.41,75.73,80,0,7.2,3454005
431,"Saint-Philippe, RE",-21.36,67.1,73,0,6.93,935215
432,"Kavaratti, IN",10.57,82.39,72,71,4.21,1267390
